…
load(file="concept_020122.Rdata")

For each concept, there are multiple terms (word or phrase). For
example, the ABUSE concept contains 309 different unique terms.

For each concept, there are multiple terms (word or phrase). For
example, the ABUSE concept contains 309 different unique terms.

concept %>% count(concept)

## # A tibble: 34 × 2
##    concept           n
##    <chr>         <int>
##  1 abuse           309
##  2 argue            96
##  3 aux_condit       32
##  4 child            10
##  5 child_abuse       5
##  6 control         724
##  7 danger_person   488
##  8 danger_weapon   674
##  9 deceipt         191
## 10 dvpo            105
## # … with 24 more rows
…
